Query the NHS TRUD API • trud
…
Step 2: Browse all available items (note: subscription required for access):

# List all available TRUD items
trud_items()
#> # A tibble: 73 × 2
#>    item_number item_name                                                        
#>          <int> <chr>                                                            
#>  1         246 Cancer Outcomes and Services Data Set XML Schema                 
#>  2         245 Commissioning Data Set XML Schema                                
#>  3         599 Community Services Data Set Intermediate Database                
#>  4         393 Community Services Data Set post-deadline extract XML Schema     
#>  5         394 Community Services Data Set pre-deadline extract XML Schema      
#>  6         391 Community Services Data Set XML Schema                           
#>  7         248 Diagnostic Imaging Data Set XML Schema                           
#>  8         239 dm+d XML transformation tool                                     
#>  9        1859 Electronic Prescribing and Medicines Administration Data Sets XM…
#> 10        1819 Emergency Care Data Set XML Schema                               
#> # ℹ 63 more rows
…
